…
```julia
julia> using RankCompV3
# Use the default values for the following other parameters. If you need to modify the parameters, add them directly.
julia> result = reoa(use_testdata="yes")
```

The analysis results and a few plots will be generated and saved in the current work directory. They are also returned by the `reoa` function and can be captured by assign the returned values to a variable,  e.g., `result` in the above example.  

The first return value is a DataFrame, where rows are genes and columns are statistical values for each gene. All the genes passing the basic preprocessing step are retained. 


```julia
julia> result
19999×2 DataFrame
   Row │ gene_name  group1_vs_group2
       │ Any        Any
───────┼─────────────────────────────
     1 │ DE1        up
     2 │ DE2        up
     3 │ DE3        up
     4 │ DE4        up
     5 │ DE5        up
     6 │ DE6        up
   ⋮   │     ⋮             ⋮
 19995 │ EE19996    up
 19996 │ EE19997    up
 19997 │ EE19998    up
 19998 │ EE19999    up
 19999 │ EE20000    up
                   19988 rows omitted
```
…
```R
julia_library("RankCompV3")
result <- julia_do.call("reoa",list(use_testdata="yes"),need_return="Julia",show_value=FALSE)
```

The analysis results and a few plots will be generated and saved in the current work directory. They are also returned by the `reoa` function and can be captured by assign the returned values to a variable,  e.g., `result` in the above example.  

The first return value is a DataFrame, where rows are genes and columns are statistical values for each gene. All the genes passing the basic preprocessing step are retained. 


```R
> result
Julia Object of type Tuple{DataFrames.DataFrame, DataFrames.DataFrame, DataFrames.DataFrame}.
19999×2 DataFrame
   Row │ gene_name  group1_vs_group2
       │ Any        Any
───────┼─────────────────────────────
     1 │ DE1        up
     2 │ DE2        up
     3 │ DE3        up
     4 │ DE4        up
     5 │ DE5        up
     6 │ DE6        up
   ⋮   │     ⋮             ⋮
 19995 │ EE19996    up
 19996 │ EE19997    up
 19997 │ EE19998    up
 19998 │ EE19999    up
 19999 │ EE20000    up
                   19988 rows omitted
```
…
